…
label$vig_doses %>% table()
```

.
 0  1  2  3 
48 48 48 48 

```r
label
```

# A tibble: 192 x 6
    vig_doses  vig_dose_share  vig_countries vig_benefit_econ~ vig_benefit_heal~
    <dbl+lbl>       <dbl+lbl>      <dbl+lbl>         <dbl+lbl>         <dbl+lbl>
 1 0 [1 Mill~ 0 [Deutschland~ 0 [20 Staaten] 0 [Bedürftige St~ 0 [Bedürftige St~
 2 0 [1 Mill~ 0 [Deutschland~ 0 [20 Staaten] 0 [Bedürftige St~ 1 [Bedürftige St~
 3 0 [1 Mill~ 0 [Deutschland~ 0 [20 Staaten] 1 [Bedürftige St~ 0 [Bedürftige St~
 4 0 [1 Mill~ 0 [Deutschland~ 0 [20 Staaten] 1 [Bedürftige St~ 1 [Bedürftige St~
 5 0 [1 Mill~ 0 [Deutschland~ 1 [80 Staaten] 0 [Bedürftige St~ 0 [Bedürftige St~
 6 0 [1 Mill~ 0 [Deutschland~ 1 [80 Staaten] 0 [Bedürftige St~ 1 [Bedürftige St~
 7 0 [1 Mill~ 0 [Deutschland~ 1 [80 Staaten] 1 [Bedürftige St~ 0 [Bedürftige St~
 8 0 [1 Mill~ 0 [Deutschland~ 1 [80 Staaten] 1 [Bedürftige St~ 1 [Bedürftige St~
 9 0 [1 Mill~ 0 [Deutschland~ 2 [160 Staate~ 0 [Bedürftige St~ 0 [Bedürftige St~
10 0 [1 Mill~ 0 [Deutschland~ 2 [160 Staate~ 0 [Bedürftige St~ 1 [Bedürftige St~
# ... with 182 more rows, and 1 more variable: vignr <dbl>
…
